Project 1: Exploratory Data Analysis
…
data_3 %>% select(ï..ID, sport, rcc) %>% pivot_wider(names_from = "sport", 
    values_from = "rcc")

## # A tibble: 202 x 11
##    ï..ID B_Ball   Row Netball  Swim Field T_400m T_Sprnt Tennis   Gym W_Polo
##    <int>  <dbl> <dbl>   <dbl> <dbl> <dbl>  <dbl>   <dbl>  <dbl> <dbl>  <dbl>
##  1     1   3.96    NA      NA    NA    NA     NA      NA     NA    NA     NA
##  2     2   4.41    NA      NA    NA    NA     NA      NA     NA    NA     NA
##  3     3   4.14    NA      NA    NA    NA     NA      NA     NA    NA     NA
##  4     4   4.11    NA      NA    NA    NA     NA      NA     NA    NA     NA
##  5     5   4.45    NA      NA    NA    NA     NA      NA     NA    NA     NA
##  6     6   4.1     NA      NA    NA    NA     NA      NA     NA    NA     NA
##  7     7   4.31    NA      NA    NA    NA     NA      NA     NA    NA     NA
##  8     8   4.42    NA      NA    NA    NA     NA      NA     NA    NA     NA
##  9     9   4.3     NA      NA    NA    NA     NA      NA     NA    NA     NA
## 10    10   4.51    NA      NA    NA    NA     NA      NA     NA    NA     NA
## # ... with 192 more rows
…
